C:\Users\SG0221573\eclipse-workspace\Demo\src\main\java\resources\Reporter.java
C:\Users\SG0221573\eclipse-workspace\Demo\src\main\java\stepdefinition\AngeboteSteps.java
C:\Users\SG0221573\eclipse-workspace\Demo\src\main\java\resources\ExtentCucumberFormatter.java
C:\Users\SG0221573\eclipse-workspace\Demo\src\main\java\resources\ReadDatafromExcel.java
C:\Users\SG0221573\eclipse-workspace\Demo\src\main\java\stepdefinition\StartDateSteps.java
C:\Users\SG0221573\eclipse-workspace\Demo\src\main\java\stepdefinition\PrivathaftpflichtSteps.java
C:\Users\SG0221573\eclipse-workspace\Demo\src\main\java\objectRepository\PrivathaftpflichtPage.java
C:\Users\SG0221573\eclipse-workspace\Demo\src\main\java\resources\functionalLibrary.java
C:\Users\SG0221573\eclipse-workspace\Demo\src\main\java\objectRepository\CheckOutPage.java
C:\Users\SG0221573\eclipse-workspace\Demo\src\main\java\stepdefinition\RegistrationSteps.java
C:\Users\SG0221573\eclipse-workspace\Demo\src\main\java\stepdefinition\CheckOutSteps.java
C:\Users\SG0221573\eclipse-workspace\Demo\src\main\java\resources\helperClass.java
C:\Users\SG0221573\eclipse-workspace\Demo\src\main\java\objectRepository\AngebotePage.java
C:\Users\SG0221573\eclipse-workspace\Demo\src\main\java\objectRepository\RegistrationPage.java
C:\Users\SG0221573\eclipse-workspace\Demo\src\main\java\runner\TestRunner.java
C:\Users\SG0221573\eclipse-workspace\Demo\src\main\java\objectRepository\StartDatePage.java
